{
  "text.jconon_application_possesso_cittadinanza_italiana": {
    "oldLabel": "di possedere la cittadinanza italiana",
    "newLabel": "di essere cittadino italiano o di uno degli Stati membri dell'Unione Europea"
  },
  "text.jconon_application_condanne_penali": {
    "oldLabel": "di non aver riportato condanne penali, né avere procedimenti penali in corso, anche all'estero",
    "newLabel": " di non essere stato condannato con sentenza irrevocabile, salvi gli effetti della riabilitazione per un delitto contro la pubblica Amministrazione, contro la fede pubblica, contro il patrimonio, contro l’ambiente, contro l'ordine pubblico, contro l'economia pubblica ovvero per un delitto in materia tributaria<p><i>(le cause di esclusione operano anche nel caso in cui la sentenza definitiva disponga l’applicazione della pena su richiesta, ai sensi dell’articolo 444 del codice di procedura penale salvo il caso dell'estinzione del reato);</i>  </p>\n"
  },
  "text.jconon_application_laurea": {
    "oldLabel": "di aver conseguito il seguente titolo di studio (o titolo estero equivalente)",
    "newLabel": "di essere in possesso del diploma di laurea (vecchio ordinamento) o laurea specialistica o laurea magistrale"
  },
  "affix_tabCurriculum": {
    "oldLabel": "A) Curriculum",
    "newLabel": "Altri dati facoltativi"
  },
  "affix_tabSchedaAnonima": {
    "oldLabel": "Scheda Anonima Sintetica",
    "newLabel": "Dettaglio delle esperienze"
  },
   "affix_tabSchedaAnonimaRinnovo": {
    "oldLabel": "Scheda Anonima Sintetica Rinnovo",
    "newLabel": "DETTAGLIO DEI CORSI FREQUENTATI PER IL RAGGIUNGIMENTO DEI CREDITI NECESSARI AL RINNOVO DELL’ISCRIZIONE"
  },
  "affix_tabUlterioriDati": {
    "oldLabel": "Ulteriori Dati",
    "newLabel": "Fascia professionale"
  },
  
  
  "label.jconon_application.fl_sentenza_giudicato": {
    "oldLabel": "di non essere stato condannato, anche con sentenza non passata in giudicato, per uno dei reati previsti dal capo I del titolo II del libro secondo del codice penale",
    "newLabel": "di non essere stato sottoposto a misure di prevenzione disposte dall'autorità giudiziaria ai sensi del decreto legislativo 6 settembre 2011, n. 159, concernente il codice delle leggi antimafia e delle misure di prevenzione, nonché nuove disposizioni in materia di documentazione antimafia a norma degli articoli 1 e 2 della legge 13 agosto 2010, n. 136, salvi gli effetti della riabilitazione <p> <i>(le cause di esclusione operano anche nel caso in cui la sentenza definitiva disponga l’applicazione della pena su richiesta, ai sensi dell’articolo 444 del codice di procedura penale salvo il caso dell'estinzione del reato); </i></p> "
  },
  "label.jconon_application.fl_condanne_contabili": {
    "oldLabel": "di non avere riportato condanne nei giudizi di responsabilità contabile e amministrativa",
    "newLabel": "di non trovarsi in stato di interdizione anche temporanea o di sospensione dagli uffici direttivi delle persone giuridiche e delle imprese <p> <i>(le cause di esclusione operano anche nel caso in cui la sentenza definitiva disponga l’applicazione della pena su richiesta, ai sensi dell’articolo 444 del codice di procedura penale salvo il caso dell'estinzione del reato);</i></p>"
  },
  "label.jconon_application.fl_incarichi_pubblici_apicali": {
    "oldLabel": "di non rivestire incarichi pubblici elettivi, incarichi apicali presso uffici di diretta collaborazione, cariche in partiti politici o in organizzazioni sindacali e di non aver rivestito tali incarichi e cariche nei tre anni precedenti all'iscrizione all'Elenco nazionale ovvero al rinnovo dell'iscrizione.",
	"newLabel": "di non essere stato condannato con sentenza irrevocabile, salvi gli effetti della riabilitazione, alla reclusione per un tempo superiore a due anni per qualunque delitto non colposo <p><i>(le cause di esclusione operano anche nel caso in cui la sentenza definitiva disponga l’applicazione della pena su richiesta, ai sensi dell’articolo 444 del codice di procedura penale salvo il caso dell'estinzione del reato);</i> </p>"
  },
  "label.jconon_application.fl_precedente_incarico_oiv": {
    "oldLabel": "di aver ricoperto l'incarico di organismo indipendente di valutazione o nucleo di valutazione per almeno 3 anni",
    "newLabel": "che le informazioni relative alle esperienze/incarichi, riportate nella domanda e nel curriculum vitae, corrispondono a verità."
  },
  "label.jconon_application.fl_magistrato_contabile": {
    "oldLabel": "di non essere soggetto deputato allo svolgimento di funzioni di controllo esterno alle amministrazioni e di non essere magistrato contabile",
    "newLabel": "di non rivestire incarichi pubblici elettivi o cariche in partiti politici o in organizzazioni sindacali, ovvero non avere rapporti continuativi di collaborazione o di consulenza con le predette organizzazioni, ovvero non avere rivestito simili incarichi o cariche, ovvero non avere avuto simili rapporti nei tre anni precedenti la designazione"
  },
  "label.jconon_application_data_laurea": {
    "oldLabel": "Data Conseguimento",
    "newLabel": "Data conseguimento"
  },
  "affix_tabTitoli": {
    "oldLabel": "Allegati Vari",
    "newLabel": "Allegati alla domanda"
  },
  "affix_tabDatiCNR": {
    "oldLabel": "Dati CNR",
    "newLabel": "Dati posizione lavorativa attuale"
  }
}